…
    ## Rows: 35 Columns: 1443
    ## ── Column specification ────────────────────────────────────────────────────────
    ## Delimiter: ","
    ## chr    (1): day
    ## dbl (1442): week, day_id, activity.1, activity.2, activity.3, activity.4, ac...
    ## 
    ## ℹ Use `spec()` to retrieve the full column specification for this data.
    ## ℹ Specify the column types or set `show_col_types = FALSE` to quiet this message.

``` r
accel
```

    ## # A tibble: 35 × 1,443
    ##     week day_id day      activ…¹ activ…² activ…³ activ…⁴ activ…⁵ activ…⁶ activ…⁷
    ##    <dbl>  <dbl> <chr>      <dbl>   <dbl>   <dbl>   <dbl>   <dbl>   <dbl>   <dbl>
    ##  1     1      1 Friday      88.4    82.2    64.4    70.0    75.0    66.3    53.8
    ##  2     1      2 Monday       1       1       1       1       1       1       1  
    ##  3     1      3 Saturday     1       1       1       1       1       1       1  
    ##  4     1      4 Sunday       1       1       1       1       1       1       1  
    ##  5     1      5 Thursday    47.4    48.8    46.9    35.8    49.0    44.8    73.4
    ##  6     1      6 Tuesday     64.8    59.5    73.7    45.7    42.4    58.4    76.8
    ##  7     1      7 Wednesd…    71.1   103.     68.5    45.4    37.8    18.3    27.5
    ##  8     2      8 Friday     675     542    1010     779     509     106     637  
    ##  9     2      9 Monday     291     335     393     335     263     675     213  
    ## 10     2     10 Saturday    64      11       1       1       1       1       1  
    ## # … with 25 more rows, 1,433 more variables: activity.8 <dbl>,
    ## #   activity.9 <dbl>, activity.10 <dbl>, activity.11 <dbl>, activity.12 <dbl>,
    ## #   activity.13 <dbl>, activity.14 <dbl>, activity.15 <dbl>, activity.16 <dbl>,
    ## #   activity.17 <dbl>, activity.18 <dbl>, activity.19 <dbl>, activity.20 <dbl>,
    ## #   activity.21 <dbl>, activity.22 <dbl>, activity.23 <dbl>, activity.24 <dbl>,
    ## #   activity.25 <dbl>, activity.26 <dbl>, activity.27 <dbl>, activity.28 <dbl>,
    ## #   activity.29 <dbl>, activity.30 <dbl>, activity.31 <dbl>, …
…
    ## Rows: 35 Columns: 1443
    ## ── Column specification ────────────────────────────────────────────────────────
    ## Delimiter: ","
    ## chr    (1): day
    ## dbl (1442): week, day_id, activity.1, activity.2, activity.3, activity.4, ac...
    ## 
    ## ℹ Use `spec()` to retrieve the full column specification for this data.
    ## ℹ Specify the column types or set `show_col_types = FALSE` to quiet this message.

``` r
accel
```

    ## # A tibble: 50,400 × 6
    ##     week day_id day    minutes_from_midnight activity weekend_vs_weekdays
    ##    <dbl>  <dbl> <chr>                  <dbl>    <dbl> <chr>              
    ##  1     1      1 Friday                     1     88.4 weekday            
    ##  2     1      1 Friday                     2     82.2 weekday            
    ##  3     1      1 Friday                     3     64.4 weekday            
    ##  4     1      1 Friday                     4     70.0 weekday            
    ##  5     1      1 Friday                     5     75.0 weekday            
    ##  6     1      1 Friday                     6     66.3 weekday            
    ##  7     1      1 Friday                     7     53.8 weekday            
    ##  8     1      1 Friday                     8     47.8 weekday            
    ##  9     1      1 Friday                     9     55.5 weekday            
    ## 10     1      1 Friday                    10     43.0 weekday            
    ## # … with 50,390 more rows
…
    ## Rows: 35 Columns: 1443
    ## ── Column specification ────────────────────────────────────────────────────────
    ## Delimiter: ","
    ## chr    (1): day
    ## dbl (1442): week, day_id, activity.1, activity.2, activity.3, activity.4, ac...
    ## 
    ## ℹ Use `spec()` to retrieve the full column specification for this data.
    ## ℹ Specify the column types or set `show_col_types = FALSE` to quiet this message.
    ## `summarise()` has grouped output by 'week'. You can override using the `.groups` argument.

``` r
accel
```

    ## # A tibble: 35 × 3
    ## # Groups:   week, day, total [35]
    ##     week day         total
    ##    <dbl> <chr>       <dbl>
    ##  1     1 Friday    480543.
    ##  2     1 Monday     78828.
    ##  3     1 Saturday  376254 
    ##  4     1 Sunday    631105 
    ##  5     1 Thursday  355924.
    ##  6     1 Tuesday   307094.
    ##  7     1 Wednesday 340115.
    ##  8     2 Friday    568839 
    ##  9     2 Monday    295431 
    ## 10     2 Saturday  607175 
    ## # … with 25 more rows
…
